{"success":true,"data":{"records":[{"id":65,"amount":3150,"currency":"USD","description":"OpenRouter 充值","invoiceUrl":"https://invoice.stripe.com/i/acct_1Mxuu2DhhPj8i4PA/live_YWNjdF8xTXh1dTJEaGhQajhpNFBBLF9UdThHZ0NSRVJKTlpjMXR3SkJSOFB1aDd2ekxINndELDE2MDU2NzQ2NA0200DFp6qMeM?s=ap","verified":false,"createdAt":"2026-02-02 10:06:03"},{"id":64,"amount":2100,"currency":"USD","description":"OpenRouter 充值","invoiceUrl":"https://invoice.stripe.com/i/acct_1Mxuu2DhhPj8i4PA/live_YWNjdF8xTXh1dTJEaGhQajhpNFBBLF9UdHZ2T1c5d3R3YjJQY0t4VE5qWHI2UzBCdjN0MnVNLDE2MDUyMTU5OQ0200kQHMy6Xp?s=ap","verified":false,"createdAt":"2026-02-01 21:20:17"},{"id":54,"amount":90,"currency":"USD","description":"OpenAI 充值","invoiceUrl":"https://invoice.stripe.com/i/acct_1HOrSwC6h1nxGoI3/live_YWNjdF8xSE9yU3dDNmgxbnhHb0kzLF9UdGdXTE5WOHN2Yk1MVmt6WmdOb3pZNWhqZGk2b0tRLDE2MDUxMzk5NQ0200Fc7FCuvX?s=ap","verified":false,"createdAt":"2026-02-01 19:13:35"},{"id":53,"amount":90,"currency":"USD","description":"OpenAI 充值","invoiceUrl":"https://invoice.stripe.com/i/acct_1HOrSwC6h1nxGoI3/live_YWNjdF8xSE9yU3dDNmgxbnhHb0kzLF9UdFU5VzdyZFZQc1oxQ0ZMdUoxeUFSVTJDSlg0U2phLDE2MDUxMzk5NQ0200EKGPN1G3?s=ap","verified":false,"createdAt":"2026-02-01 19:13:26"},{"id":52,"amount":91,"currency":"USD","description":"OpenAI 充值","invoiceUrl":"https://invoice.stripe.com/i/acct_1HOrSwC6h1nxGoI3/live_YWNjdF8xSE9yU3dDNmgxbnhHb0kzLF9UdG5kN1dkWW5zM3UxZlZBcVhKODdEZXBGSHlHdGdJLDE2MDUxMzkzMg0200I86IPDvD?s=ap","verified":false,"createdAt":"2026-02-01 19:13:06"},{"id":51,"amount":91,"currency":"USD","description":"OpenAI 充值","invoiceUrl":"https://invoice.stripe.com/i/acct_1HOrSwC6h1nxGoI3/live_YWNjdF8xSE9yU3dDNmgxbnhHb0kzLF9UdGZSWm9wYnRjQnRDbjhPYU1VNk1uNjJrcmMyYjhXLDE2MDUxMzkzMg0200fUcEexh8?s=ap","verified":false,"createdAt":"2026-02-01 19:12:57"},{"id":50,"amount":91,"currency":"USD","description":"OpenAI 充值","invoiceUrl":"https://invoice.stripe.com/i/acct_1HOrSwC6h1nxGoI3/live_YWNjdF8xSE9yU3dDNmgxbnhHb0kzLF9UdFV2N2V4dVZBTkViUUFNcGNUVmdTZVVUT0s4M2V3LDE2MDUxMzkzMg0200irL7B4tG?s=ap","verified":false,"createdAt":"2026-02-01 19:12:43"},{"id":49,"amount":3675,"currency":"USD","description":"OpenRouter 充值","invoiceUrl":"https://invoice.stripe.com/i/acct_1Mxuu2DhhPj8i4PA/live_YWNjdF8xTXh1dTJEaGhQajhpNFBBLF9UdGtNNWlDYXdwVUlRNEw2eXIxRmdNMld3cDZDNEVJLDE2MDQ3ODU3Ng0200MFeoZXSV?s=ap","verified":false,"createdAt":"2026-02-01 09:23:11"},{"id":48,"amount":90,"currency":"USD","description":"OpenAI 充值","invoiceUrl":"https://invoice.stripe.com/i/acct_1HOrSwC6h1nxGoI3/live_YWNjdF8xSE9yU3dDNmgxbnhHb0kzLF9UdFU5VzdyZFZQc1oxQ0ZMdUoxeUFSVTJDSlg0U2phLDE2MDQ1MDE2OA02009L5QVkDl?s=ap","verified":false,"createdAt":"2026-02-01 01:30:06"},{"id":47,"amount":90,"currency":"USD","description":"OpenAI 充值","invoiceUrl":"https://invoice.stripe.com/i/acct_1HOrSwC6h1nxGoI3/live_YWNjdF8xSE9yU3dDNmgxbnhHb0kzLF9UdDZtaDd6SFpMbzZQRnNJYWM2Vmt3YjIzMWU1S2IzLDE2MDQ1MDE2OA0200ql2KcF3o?s=ap","verified":false,"createdAt":"2026-02-01 01:29:59"},{"id":46,"amount":91,"currency":"USD","description":"OpenAI 充值","invoiceUrl":"https://invoice.stripe.com/i/acct_1HOrSwC6h1nxGoI3/live_YWNjdF8xSE9yU3dDNmgxbnhHb0kzLF9UdFV2N2V4dVZBTkViUUFNcGNUVmdTZVVUT0s4M2V3LDE2MDQ1MDExOQ020027kdlr7j?s=ap","verified":false,"createdAt":"2026-02-01 01:29:04"},{"id":45,"amount":92,"currency":"USD","description":"OpenAI 充值","invoiceUrl":"https://invoice.stripe.com/i/acct_1HOrSwC6h1nxGoI3/live_YWNjdF8xSE9yU3dDNmgxbnhHb0kzLF9UdElXQnU1MlVFaDNWR0NFVTF6QU5ZOE5LWFQ1N0tpLDE2MDQ1MDExOQ0200xUjL2B10?s=ap","verified":false,"createdAt":"2026-02-01 01:28:57"},{"id":44,"amount":5170,"currency":"USD","description":"媒体推广","invoiceUrl":"https://bscscan.com/tx/0x380ed223e75d19c2bf2074af748160ba8600acc7013df7bf05d027046fa5c617","verified":false,"createdAt":"2026-01-31 11:53:33"},{"id":43,"amount":1995,"currency":"USD","description":"OpenRouter 充值","invoiceUrl":"https://invoice.stripe.com/i/acct_1Mxuu2DhhPj8i4PA/live_YWNjdF8xTXh1dTJEaGhQajhpNFBBLF9UdE5VNTl0d1JsWEdSV3VLMnk2ZHI0OEdoeFF4TUoxLDE2MDM5MzQ5MA0200s2iszsIZ?s=ap","verified":false,"createdAt":"2026-01-31 09:45:28"},{"id":42,"amount":1715,"currency":"USD","description":"V2EX推广","invoiceUrl":"https://bscscan.com/tx/0xb2f7fc38e6f95964e3cdb7c48b0cee3bb88610d3f4256987d0cf684cd64ae01b","verified":false,"createdAt":"2026-01-30 23:23:04"},{"id":41,"amount":90,"currency":"USD","description":"Anthropic 充值","invoiceUrl":"https://invoice.stripe.com/i/acct_1MExQ9BjIQrRQnux/live_YWNjdF8xTUV4UTlCaklRclJRbnV4LF9UdENYTGNZUXV1VWpNMWh3TFYwemF3MUd3MzlQa0FhLDE2MDM1Mjk1NQ02003mPctJtT?s=ap","verified":false,"createdAt":"2026-01-30 22:30:57"},{"id":40,"amount":94,"currency":"USD","description":"OpenAI 充值","invoiceUrl":"https://invoice.stripe.com/i/acct_1HOrSwC6h1nxGoI3/live_YWNjdF8xSE9yU3dDNmgxbnhHb0kzLF9Uc3hndjRvdG91bFhONVdONGc1N0tFcTFzdkdab0FSLDE2MDMzMjcwOQ0200qrD6QI5G?s=ap","verified":false,"createdAt":"2026-01-30 16:52:30"},{"id":39,"amount":90,"currency":"USD","description":"OpenAI 充值","invoiceUrl":"https://invoice.stripe.com/i/acct_1HOrSwC6h1nxGoI3/live_YWNjdF8xSE9yU3dDNmgxbnhHb0kzLF9UdDZtaDd6SFpMbzZQRnNJYWM2Vmt3YjIzMWU1S2IzLDE2MDMzMjcwOQ0200vTRuNmd3?s=ap","verified":false,"createdAt":"2026-01-30 16:52:18"},{"id":38,"amount":90,"currency":"USD","description":"OpenAI 充值","invoiceUrl":"https://invoice.stripe.com/i/acct_1HOrSwC6h1nxGoI3/live_YWNjdF8xSE9yU3dDNmgxbnhHb0kzLF9Uc3Z6WW9DYzhrV2MzNzBVOVFGaXNlb3ZkTnVRdlJ4LDE2MDMzMjQyMg02009JX6GVNT?s=ap","verified":false,"createdAt":"2026-01-30 16:47:48"},{"id":37,"amount":90,"currency":"USD","description":"OpenAI 充值","invoiceUrl":"https://invoice.stripe.com/i/acct_1HOrSwC6h1nxGoI3/live_YWNjdF8xSE9yU3dDNmgxbnhHb0kzLF9Uc3pYejFJbDZjbGRLbk92VERpM1ZKWmxvbkhjMlNILDE2MDMzMjQyMg0200U6FrAble?s=ap","verified":false,"createdAt":"2026-01-30 16:47:32"}],"pagination":{"page":1,"limit":20,"total":56,"totalPages":3},"summary":{"totalRecords":56,"totalAmount":"80697.00","currency":"USD"}}}